module codeberg.org/sterndata/go-arangodb

go 1.19

require (
	github.com/arangodb/go-driver v1.3.3
	github.com/stretchr/testify v1.8.0
)

require (
	github.com/arangodb/go-velocypack v0.0.0-20200318135517-5af53c29c67e // indirect
	github.com/davecgh/go-spew v1.1.1 // indirect
	github.com/pkg/errors v0.9.1 // indirect
	github.com/pmezard/go-difflib v1.0.0 // indirect
	github.com/stretchr/objx v0.4.0 // indirect
	gopkg.in/yaml.v3 v3.0.1 // indirect
)
